{
  "apps" : [
    {
      "name": "❇️ back",
      "script": "npm",
      "args": "start",
      "exec_mode": "fork",
      "env": {
        "NODE_ENV": "local"
      },
      "env_production": {
        "NODE_ENV": "production",
        "LOG_LEVEL": "debug"
      }
    }
  ]
}
